{
  "orders": [
    {
      "id": "1",
      "name": "Product A",
      "quantity": 10,
      "image": "https://picsum.photos/200/300"
    },
    {
      "id": "2",
      "name": "Product B",
      "quantity": 5,
      "image": "https://picsum.photos/200/320"
    },
    {
      "id": "3",
      "name": "Product C",
      "quantity": 15,
      "image": "https://picsum.photos/200/310"
    },
    {
      "id": "4",
      "name": "Product D",
      "quantity": 3,
      "image": "https://picsum.photos/200/315"
    },
    {
      "id": "6",
      "name": "Product E",
      "quantity": 0,
      "image": "https://picsum.photos/200/330"
    },
    {
      "id": "7",
      "name": "Product E",
      "quantity": 0,
      "image": "https://picsum.photos/200/330"
    },
    {
      "id": "5ad",
      "name": "Product E",
      "quantity": 0,
      "image": "https://picsum.photos/200/330"
    },
    {
      "id": "5wda",
      "name": "Product E",
      "quantity": 0,
      "image": "https://picsum.photos/200/330"
    },
    {
      "id": "5dc",
      "name": "Product E",
      "quantity": 0,
      "image": "https://picsum.photos/200/330"
    },{
      "id": "fad5",
      "name": "Product E",
      "quantity": 0,
      "image": "https://picsum.photos/200/330"
    }
  ],
  "totalItems": 33,
  "totalPages": 3,
  "page": 1
}
